{
	"id": "6661a92f-c665-4d4d-975a-02d4a9600552",
	"name": "Xenon_api",
	"values": [
		{
			"key": "xenonapi",
			"value": "http://127.0.0.1:8741/api/",
			"enabled": true
		},
		{
			"key": "username",
			"value": "",
			"enabled": true
		},
		{
			"key": "token",
			"value": "",
			"enabled": true
		},
		{
			"key": "name",
			"value": "",
			"enabled": false
		},
		{
			"key": "lastCar",
			"value": "",
			"enabled": true
		}
	],
	"_postman_variable_scope": "environment",
	"_postman_exported_at": "2021-11-28T18:37:28.057Z",
	"_postman_exported_using": "Postman/8.12.5"
}